// https://www.revatua.gov.pf/api/v1/public/trajets?idNavire=1&page=0&limit=10&sort=dateDepart,heureDepart,asc&dateDebut=2024-08-08&dateFin=2024-08-31

{
    "content": [
        {
            "id": 43557,
            "numeroVoyage": "2024-ARN5-15",
            "nomNavire": "ARANUI 5",
            "abreviationNavire": "ARN5",
            "archipelDestinationDepart": "Société",
            "archipelDestinationArrivee": "Tuamotu",
            "destinationDepart": "Tahiti/PAPEETE",
            "dateDepart": "2024-08-17",
            "heureDepart": "12:00:00",
            "destinationArrivee": "Fakarava/ROTOAVA",
            "dateArrivee": "2024-08-18",
            "heureArrivee": "07:00:00",
            "dateDepartVoyage": "2024-08-17",
            "dateRetourVoyage": "2024-08-28",
            "croisiere": false,
            "codeZoneTarifaireArrivee": "TUAO"
        },
        {
            "id": 43558,
            "numeroVoyage": "2024-ARN5-15",
            "nomNavire": "ARANUI 5",
            "abreviationNavire": "ARN5",
            "archipelDestinationDepart": "Tuamotu",
            "archipelDestinationArrivee": "Marquises",
            "destinationDepart": "Fakarava/ROTOAVA",
            "dateDepart": "2024-08-18",
            "heureDepart": "12:30:00",
            "destinationArrivee": "Nuku Hiva/TAIOHAE",
            "dateArrivee": "2024-08-20",
            "heureArrivee": "06:00:00",
            "dateDepartVoyage": "2024-08-17",
            "dateRetourVoyage": "2024-08-28",
            "croisiere": false,
            "codeZoneTarifaireArrivee": "MAR"
        },
        {
            "id": 43559,
            "numeroVoyage": "2024-ARN5-15",
            "nomNavire": "ARANUI 5",
            "abreviationNavire": "ARN5",
            "archipelDestinationDepart": "Marquises",
            "archipelDestinationArrivee": "Marquises",
            "destinationDepart": "Nuku Hiva/TAIOHAE",
            "dateDepart": "2024-08-21",
            "heureDepart": "04:30:00",
            "destinationArrivee": "Ua Pou/Hakahau",
            "dateArrivee": "2024-08-21",
            "heureArrivee": "07:00:00",
            "dateDepartVoyage": "2024-08-17",
            "dateRetourVoyage": "2024-08-28",
            "croisiere": false,
            "codeZoneTarifaireArrivee": "MAR"
        },
        {
            "id": 43560,
            "numeroVoyage": "2024-ARN5-15",
            "nomNavire": "ARANUI 5",
            "abreviationNavire": "ARN5",
            "archipelDestinationDepart": "Marquises",
            "archipelDestinationArrivee": "Marquises",
            "destinationDepart": "Ua Pou/Hakahau",
            "dateDepart": "2024-08-22",
            "heureDepart": "00:30:00",
            "destinationArrivee": "Tahuata/VAITAHU",
            "dateArrivee": "2024-08-22",
            "heureArrivee": "05:30:00",
            "dateDepartVoyage": "2024-08-17",
            "dateRetourVoyage": "2024-08-28",
            "croisiere": false,
            "codeZoneTarifaireArrivee": "MAR"
        },
        {
            "id": 43561,
            "numeroVoyage": "2024-ARN5-15",
            "nomNavire": "ARANUI 5",
            "abreviationNavire": "ARN5",
            "archipelDestinationDepart": "Marquises",
            "archipelDestinationArrivee": "Marquises",
            "destinationDepart": "Tahuata/VAITAHU",
            "dateDepart": "2024-08-22",
            "heureDepart": "10:00:00",
            "destinationArrivee": "Hiva Oa/ATUONA",
            "dateArrivee": "2024-08-22",
            "heureArrivee": "11:30:00",
            "dateDepartVoyage": "2024-08-17",
            "dateRetourVoyage": "2024-08-28",
            "croisiere": false,
            "codeZoneTarifaireArrivee": "MAR"
        },
        {
            "id": 43562,
            "numeroVoyage": "2024-ARN5-15",
            "nomNavire": "ARANUI 5",
            "abreviationNavire": "ARN5",
            "archipelDestinationDepart": "Marquises",
            "archipelDestinationArrivee": "Marquises",
            "destinationDepart": "Hiva Oa/ATUONA",
            "dateDepart": "2024-08-23",
            "heureDepart": "02:00:00",
            "destinationArrivee": "Fatu Hiva/OMOA",
            "dateArrivee": "2024-08-23",
            "heureArrivee": "06:00:00",
            "dateDepartVoyage": "2024-08-17",
            "dateRetourVoyage": "2024-08-28",
            "croisiere": false,
            "codeZoneTarifaireArrivee": "MAR"
        },
        {
            "id": 43563,
            "numeroVoyage": "2024-ARN5-15",
            "nomNavire": "ARANUI 5",
            "abreviationNavire": "ARN5",
            "archipelDestinationDepart": "Marquises",
            "archipelDestinationArrivee": "Marquises",
            "destinationDepart": "Fatu Hiva/OMOA",
            "dateDepart": "2024-08-23",
            "heureDepart": "11:20:00",
            "destinationArrivee": "Fatu Hiva/HANAVAVE",
            "dateArrivee": "2024-08-23",
            "heureArrivee": "12:00:00",
            "dateDepartVoyage": "2024-08-17",
            "dateRetourVoyage": "2024-08-28",
            "croisiere": false,
            "codeZoneTarifaireArrivee": "MAR"
        },
        {
            "id": 43564,
            "numeroVoyage": "2024-ARN5-15",
            "nomNavire": "ARANUI 5",
            "abreviationNavire": "ARN5",
            "archipelDestinationDepart": "Marquises",
            "archipelDestinationArrivee": "Marquises",
            "destinationDepart": "Fatu Hiva/HANAVAVE",
            "dateDepart": "2024-08-23",
            "heureDepart": "22:00:00",
            "destinationArrivee": "Ua Huka/Vaipaee",
            "dateArrivee": "2024-08-24",
            "heureArrivee": "06:30:00",
            "dateDepartVoyage": "2024-08-17",
            "dateRetourVoyage": "2024-08-28",
            "croisiere": false,
            "codeZoneTarifaireArrivee": "MAR"
        },
        {
            "id": 43565,
            "numeroVoyage": "2024-ARN5-15",
            "nomNavire": "ARANUI 5",
            "abreviationNavire": "ARN5",
            "archipelDestinationDepart": "Marquises",
            "archipelDestinationArrivee": "Tuamotu",
            "destinationDepart": "Ua Huka/Vaipaee",
            "dateDepart": "2024-08-24",
            "heureDepart": "16:00:00",
            "destinationArrivee": "Rangiroa/TIPUTA",
            "dateArrivee": "2024-08-26",
            "heureArrivee": "08:00:00",
            "dateDepartVoyage": "2024-08-17",
            "dateRetourVoyage": "2024-08-28",
            "croisiere": false,
            "codeZoneTarifaireArrivee": "TUAO"
        },
        {
            "id": 43566,
            "numeroVoyage": "2024-ARN5-15",
            "nomNavire": "ARANUI 5",
            "abreviationNavire": "ARN5",
            "archipelDestinationDepart": "Tuamotu",
            "archipelDestinationArrivee": "Société",
            "destinationDepart": "Rangiroa/TIPUTA",
            "dateDepart": "2024-08-26",
            "heureDepart": "13:00:00",
            "destinationArrivee": "Bora Bora/VAITAPE",
            "dateArrivee": "2024-08-27",
            "heureArrivee": "07:30:00",
            "dateDepartVoyage": "2024-08-17",
            "dateRetourVoyage": "2024-08-28",
            "croisiere": false,
            "codeZoneTarifaireArrivee": "ISLV"
        }
    ],
    "pageable": {
        "sort": {
            "sorted": true,
            "unsorted": false,
            "empty": false
        },
        "pageNumber": 0,
        "pageSize": 10,
        "offset": 0,
        "unpaged": false,
        "paged": true
    },
    "totalElements": 12,
    "totalPages": 2,
    "last": false,
    "first": true,
    "sort": {
        "sorted": true,
        "unsorted": false,
        "empty": false
    },
    "numberOfElements": 10,
    "size": 10,
    "number": 0,
    "empty": false
}